Configuration	OscilloscopeC
STM32CubeMX 	4.22.1
Date	10/09/2017
MCU	STM32F746BETx



PERIPHERALS	MODES	FUNCTIONS	PINS
DAC	DAC_OUT1	DAC_OUT1	PA4
DAC	DAC_OUT2	DAC_OUT2	PA5
FMC:SDRAM 1	SDCKE0+SDNE0	FMC_SDCKE0	PH2
FMC:SDRAM 1	SDCKE0+SDNE0	FMC_SDNE0	PC2
FMC:SDRAM 1	4 banks	FMC_BA0	PG4
FMC:SDRAM 1	4 banks	FMC_BA1	PG5
FMC:SDRAM 1	12 bits	FMC_A0	PF0
FMC:SDRAM 1	12 bits	FMC_A1	PF1
FMC:SDRAM 1	12 bits	FMC_A2	PF2
FMC:SDRAM 1	12 bits	FMC_A3	PF3
FMC:SDRAM 1	12 bits	FMC_A4	PF4
FMC:SDRAM 1	12 bits	FMC_A5	PF5
FMC:SDRAM 1	12 bits	FMC_A6	PF12
FMC:SDRAM 1	12 bits	FMC_A7	PF13
FMC:SDRAM 1	12 bits	FMC_A8	PF14
FMC:SDRAM 1	12 bits	FMC_A9	PF15
FMC:SDRAM 1	12 bits	FMC_A10	PG0
FMC:SDRAM 1	12 bits	FMC_SDCLK	PG8
FMC:SDRAM 1	12 bits	FMC_SDNCAS	PG15
FMC:SDRAM 1	12 bits	FMC_SDNRAS	PF11
FMC:SDRAM 1	12 bits	FMC_SDNWE	PH5
FMC:SDRAM 1	12 bits	FMC_A11	PG1
FMC:SDRAM 1	32 bits	FMC_D0	PD14
FMC:SDRAM 1	32 bits	FMC_D1	PD15
FMC:SDRAM 1	32 bits	FMC_D2	PD0
FMC:SDRAM 1	32 bits	FMC_D3	PD1
FMC:SDRAM 1	32 bits	FMC_D4	PE7
FMC:SDRAM 1	32 bits	FMC_D5	PE8
FMC:SDRAM 1	32 bits	FMC_D6	PE9
FMC:SDRAM 1	32 bits	FMC_D7	PE10
FMC:SDRAM 1	32 bits	FMC_D8	PE11
FMC:SDRAM 1	32 bits	FMC_D9	PE12
FMC:SDRAM 1	32 bits	FMC_D10	PE13
FMC:SDRAM 1	32 bits	FMC_D11	PE14
FMC:SDRAM 1	32 bits	FMC_D12	PE15
FMC:SDRAM 1	32 bits	FMC_D13	PD8
FMC:SDRAM 1	32 bits	FMC_D14	PD9
FMC:SDRAM 1	32 bits	FMC_D15	PD10
FMC:SDRAM 1	32 bits	FMC_D16	PH8
FMC:SDRAM 1	32 bits	FMC_D17	PH9
FMC:SDRAM 1	32 bits	FMC_D18	PH10
FMC:SDRAM 1	32 bits	FMC_D19	PH11
FMC:SDRAM 1	32 bits	FMC_D20	PH12
FMC:SDRAM 1	32 bits	FMC_D21	PH13
FMC:SDRAM 1	32 bits	FMC_D22	PH14
FMC:SDRAM 1	32 bits	FMC_D23	PH15
FMC:SDRAM 1	32 bits	FMC_D24	PI0
FMC:SDRAM 1	32 bits	FMC_D25	PI1
FMC:SDRAM 1	32 bits	FMC_D26	PI2
FMC:SDRAM 1	32 bits	FMC_D27	PI3
FMC:SDRAM 1	32 bits	FMC_D28	PI6
FMC:SDRAM 1	32 bits	FMC_D29	PI7
FMC:SDRAM 1	32 bits	FMC_D30	PI9
FMC:SDRAM 1	32 bits	FMC_D31	PI10
FMC:SDRAM 1	32-bit byte enable	FMC_NBL0	PE0
FMC:SDRAM 1	32-bit byte enable	FMC_NBL1	PE1
FMC:SDRAM 1	32-bit byte enable	FMC_NBL2	PI4
FMC:SDRAM 1	32-bit byte enable	FMC_NBL3	PI5
I2C1	I2C	I2C1_SCL	PB6
I2C1	I2C	I2C1_SDA	PB7
LTDC	RGB888 (24 bits)	LTDC_R0	PI15
LTDC	RGB888 (24 bits)	LTDC_R1	PA2
LTDC	RGB888 (24 bits)	LTDC_R2	PA1
LTDC	RGB888 (24 bits)	LTDC_R3	PJ2
LTDC	RGB888 (24 bits)	LTDC_R4	PJ3
LTDC	RGB888 (24 bits)	LTDC_R5	PJ4
LTDC	RGB888 (24 bits)	LTDC_R6	PJ5
LTDC	RGB888 (24 bits)	LTDC_R7	PJ6
LTDC	RGB888 (24 bits)	LTDC_G0	PE5
LTDC	RGB888 (24 bits)	LTDC_G1	PE6
LTDC	RGB888 (24 bits)	LTDC_G2	PA6
LTDC	RGB888 (24 bits)	LTDC_G3	PG10
LTDC	RGB888 (24 bits)	LTDC_G4	PB10
LTDC	RGB888 (24 bits)	LTDC_G5	PK0
LTDC	RGB888 (24 bits)	LTDC_G6	PC7
LTDC	RGB888 (24 bits)	LTDC_G7	PD3
LTDC	RGB888 (24 bits)	LTDC_B0	PE4
LTDC	RGB888 (24 bits)	LTDC_B1	PJ13
LTDC	RGB888 (24 bits)	LTDC_B2	PD6
LTDC	RGB888 (24 bits)	LTDC_B3	PJ15
LTDC	RGB888 (24 bits)	LTDC_B4	PG12
LTDC	RGB888 (24 bits)	LTDC_B5	PA3
LTDC	RGB888 (24 bits)	LTDC_B6	PK5
LTDC	RGB888 (24 bits)	LTDC_B7	PK6
LTDC	RGB888 (24 bits)	LTDC_HSYNC	PI12
LTDC	RGB888 (24 bits)	LTDC_VSYNC	PI13
LTDC	RGB888 (24 bits)	LTDC_CLK	PI14
LTDC	RGB888 (24 bits)	LTDC_DE	PF10
RCC	Crystal/Ceramic Resonator	RCC_OSC_IN	PH0/OSC_IN
RCC	Crystal/Ceramic Resonator	RCC_OSC_OUT	PH1/OSC_OUT
SDMMC1	SD 4 bits Wide bus	SDMMC1_CK	PC12
SDMMC1	SD 4 bits Wide bus	SDMMC1_CMD	PD2
SDMMC1	SD 4 bits Wide bus	SDMMC1_D0	PC8
SDMMC1	SD 4 bits Wide bus	SDMMC1_D1	PC9
SDMMC1	SD 4 bits Wide bus	SDMMC1_D2	PC10
SDMMC1	SD 4 bits Wide bus	SDMMC1_D3	PC11
SPI1	Full-Duplex Master	SPI1_MISO	PB4
SPI1	Full-Duplex Master	SPI1_MOSI	PB5
SPI1	Full-Duplex Master	SPI1_SCK	PB3
SPI2	Full-Duplex Master	SPI2_MISO	PB14
SPI2	Full-Duplex Master	SPI2_MOSI	PC3
SPI2	Full-Duplex Master	SPI2_SCK	PB13
SPI5	Receive Only Master	SPI5_MISO	PH7
SPI5	Receive Only Master	SPI5_SCK	PF7
SYS	SysTick	SYS_VS_Systick	VP_SYS_VS_Systick
TIM14	Enable_Timer	TIM14_VS_ClockSourceINT	VP_TIM14_VS_ClockSourceINT
TIM14	PWM Generation CH1	TIM14_CH1	PF9



Pin Nb	PINs	FUNCTIONs	LABELs
3	PE4	LTDC_B0	
4	PE5	LTDC_G0	
5	PE6	LTDC_G1	
11	PI9	FMC_D30	
12	PI10	FMC_D31	
16	PF0	FMC_A0	
17	PF1	FMC_A1	
18	PF2	FMC_A2	
19	PI12	LTDC_HSYNC	
20	PI13	LTDC_VSYNC	
21	PI14	LTDC_CLK	
22	PF3	FMC_A3	
23	PF4	FMC_A4	
24	PF5	FMC_A5	
28	PF7	SPI5_SCK	
29	PF8	GPIO_Output	
30	PF9	TIM14_CH1	
31	PF10	LTDC_DE	
32	PH0/OSC_IN	RCC_OSC_IN	
33	PH1/OSC_OUT	RCC_OSC_OUT	
37	PC2	FMC_SDNE0	
38	PC3	SPI2_MOSI	
43	PA0/WKUP	GPIO_EXTI0	
44	PA1	LTDC_R2	
45	PA2	LTDC_R1	
46	PH2	FMC_SDCKE0	
47	PH3	GPIO_EXTI3	
48	PH4	GPIO_Output	
49	PH5	FMC_SDNWE	
50	PA3	LTDC_B5	
53	PA4	DAC_OUT1	
54	PA5	DAC_OUT2	
55	PA6	LTDC_G2	
56	PA7	GPIO_Analog	
57	PC4	GPIO_Output	
58	PC5	GPIO_Output	
61	PB0	GPIO_Analog	
62	PB1	GPIO_Analog	
63	PB2	GPIO_EXTI2	
64	PI15	LTDC_R0	
65	PJ0	GPIO_Output	
66	PJ1	GPIO_Analog	
67	PJ2	LTDC_R3	
68	PJ3	LTDC_R4	
69	PJ4	LTDC_R5	
70	PF11	FMC_SDNRAS	
71	PF12	FMC_A6	
74	PF13	FMC_A7	
75	PF14	FMC_A8	
76	PF15	FMC_A9	
77	PG0	FMC_A10	
78	PG1	FMC_A11	
79	PE7	FMC_D4	
80	PE8	FMC_D5	
81	PE9	FMC_D6	
84	PE10	FMC_D7	
85	PE11	FMC_D8	
86	PE12	FMC_D9	
87	PE13	FMC_D10	
88	PE14	FMC_D11	
89	PE15	FMC_D12	
90	PB10	LTDC_G4	
95	PJ5	LTDC_R6	
96	PH6	GPIO_Output	
97	PH7	SPI5_MISO	
98	PH8	FMC_D16	
99	PH9	FMC_D17	
100	PH10	FMC_D18	
101	PH11	FMC_D19	
102	PH12	FMC_D20	
105	PB13	SPI2_SCK	
106	PB14	SPI2_MISO	
107	PB15	GPIO_Analog	
108	PD8	FMC_D13	
109	PD9	FMC_D14	
110	PD10	FMC_DA15 FMC_D15	
111	PD11	GPIO_Analog	
112	PD12	GPIO_Analog	
113	PD13	GPIO_Analog	
116	PD14	FMC_D0	
117	PD15	FMC_D1	
118	PJ6	LTDC_R7	
119	PJ7	GPIO_Analog	
120	PJ8	GPIO_Analog	
121	PJ9	GPIO_Analog	
122	PJ10	GPIO_Analog	
126	PK0	LTDC_G5	
131	PG4	FMC_BA0	
132	PG5	FMC_BA1	
135	PG8	FMC_SDCLK	
138	PC6	GPIO_Analog	
139	PC7	LTDC_G6	
140	PC8	SDMMC1_D0	
141	PC9	SDMMC1_D1	
142	PA8	GPIO_Analog	
143	PA9	GPIO_Analog	
144	PA10	GPIO_Analog	
145	PA11	GPIO_Analog	
146	PA12	GPIO_Analog	
147	PA13*	SYS_JTMS-SWDIO	
151	PH13	FMC_D21	
152	PH14	FMC_D22	
153	PH15	FMC_D23	
154	PI0	FMC_D24	
155	PI1	FMC_D25	
156	PI2	FMC_D26	
157	PI3	FMC_D27	
159	PA14*	SYS_JTCK-SWCLK	
160	PA15	GPIO_Analog	
161	PC10	SDMMC1_D2	
162	PC11	SDMMC1_D3	
163	PC12	SDMMC1_CK	
164	PD0	FMC_D2	
165	PD1	FMC_D3	
166	PD2	SDMMC1_CMD	
167	PD3	LTDC_G7	
168	PD4	GPIO_Analog	
172	PD6	LTDC_B2	
173	PD7	GPIO_Analog	
174	PJ12	GPIO_Analog	
175	PJ13	LTDC_B1	
176	PJ14	GPIO_EXTI14	
177	PJ15	LTDC_B3	
179	PG10	LTDC_G3	
181	PG12	LTDC_B4	
182	PG13	GPIO_Analog	
183	PG14	GPIO_Analog	
186	PK3	GPIO_Output	
188	PK5	LTDC_B6	
189	PK6	LTDC_B7	
190	PK7	GPIO_Output	
191	PG15	FMC_SDNCAS	
192	PB3	SPI1_SCK	
193	PB4	SPI1_MISO	
194	PB5	SPI1_MOSI	
195	PB6	I2C1_SCL	
196	PB7	I2C1_SDA	
200	PE0	FMC_NBL0	
201	PE1	FMC_NBL1	
205	PI4	FMC_NBL2	
206	PI5	FMC_NBL3	
207	PI6	FMC_D28	
208	PI7	FMC_D29	



SOFTWARE PROJECT

Project Settings : 
Project Name : OscilloscopeC
Project Folder : D:\Cube\OscilloscopeC
Toolchain / IDE : TrueSTUDIO
Firmware Package Name and Version : STM32Cube FW_F7 V1.8.0


Code Generation Settings : 
STM32Cube Firmware Library Package : Copy only the necessary library files
Generate peripheral initialization as a pair of '.c/.h' files per peripheral : No
Backup previously generated files when re-generating : No
Delete previously generated files when not re-generated : Yes
Set all free pins as analog (to optimize the power consumption) : No


Toolchains Settings : 
Compiler Optimizations : Balanced Size/Speed






